{
  "development": {
    "name": "knbitFrontend.Components.Config",
    "deps": [],
    "constants": {
      "notificationBarConfig": {
        "reconnectTimeout": 30000,
        "socketUrl": "http://localhost:8082/eventsbc/api/initial",
        "currentMessageTopic": "/message/current",
        "initialMessageTopic": "/message/initial",
        "batchServiceTopic": "/message/batch",
        "initialMessageBroker": "/notification-bc/initial",
        "batchMessageBroker": "/notification-bc/batch",
        "messageStateBroker": "/notification-bc/message-state"
      }
    }
  },
  "production": {
    "name": "knbitFrontend.Components.Config",
    "deps": [],
    "constants": {
      "notificationBarConfig": {
        "reconnectTimeout": 30000,
        "socketUrl": "http://rossum.knbit.edu.pl:7072/eventsbc/api/initial",
        "currentMessageTopic": "/message/current",
        "initialMessageTopic": "/message/initial",
        "batchServiceTopic": "/message/batch",
        "initialMessageBroker": "/notification-bc/initial",
        "batchMessageBroker": "/notification-bc/batch",
        "messageStateBroker": "/notification-bc/message-state"
      }
    }
  }
}


