{
  "development": {
    "name": "knbitFrontend.Notifications.Config",
    "deps": [],
    "constants": {
      "sendEmailUrl": "http://localhost:8080/mail"
    }
  },
  "production": {
    "name": "knbitFrontend.Notifications.Config",
    "deps": [],
    "constants": {
      "sendEmailUrl": "http://members.knbit.edu.pl:40104/mail"
    }
  }
}
